***********************************************************
*                        CompAcc v1.2                     *
*                   Nicolas Le Novere 1998                *
***********************************************************
Number of predictions: 3
Number of chains: 3
****************************************
* Predictions and prediction consensus *
****************************************

SEQ1:	 ILIVEINPARIS 
CRY:	 CEEECCCEEECC
MET1:	 CEEEECEEEECC
MET2:	 CCHHCCCEEECC
MET3:	 CHECHECHECHC

CONS:	 CEEEECCEEECC

SEQ2:	 THISISAFAKE 
CRY:	 CHHHHHHHHHC
MET1:	 CCCCCEEEECC
MET2:	 CCHHHHHHHHC
MET3:	 CHECHCHECEH

CONS:	 CCECHEHEEEC

SEQ1:	 IAMACRACK 
CRY:	 HHHHCEEEC
MET1:	 CCCCCEEEC
MET2:	 HHHHHCEEC
MET3:	 CEHCEHCEH

CONS:	 CEHCEEEEC

***************************
* Q3 accuracies per chain *
***************************

     Palpha+Pbeta+Pcoil
Q3 = ------------------
        chain length   

Where pi is the number of correctly predicted residues in the state i

	MET1	MET2	MET3	CONS	
SEQ1:	83.33	75.00	41.67	91.67	
SEQ2:	18.18	90.91	36.36	36.36	
SEQ1:	55.56	77.78	22.22	55.56	

Chain	52.36	81.23	33.42	61.20	
Stdev	26.69	6.94	8.21	22.93	

********************
* Actual structure *
********************

total number of residus:	32
total observed alpha residus:	13
total observed beta residus:	9
total observed coil residus:	10

**********************************************
* Global accuracie of the prediction methods *
**********************************************

         Pi 
Qiobs = ----
         Ni 

Where pi is the number of correctly predicted residues in the state i
and Ni is the number of residues actually in the state i

          Pi 
Qipred = ----
          Ti 

Where pi is the number of correctly predicted residues in the state i
and Ti is the total number of residues predicted in the state i

Q3obs has the same definition as above, but on the total dataset

Matthews correlation coefficients:
                PiNi-UiOi           
Ci = -------------------------------
       /----------------------------
     \/ (Pi+Oi)(Pi+Ui)(Ni+Oi)(Ni+Ui)

Where Pi is the number of correctly predicted residues in the state i
      Ni is the number of residues correctly non-predicted in the state i
      Oi is the number of residues over-predicted in the state i
      Ui is the number of residues under-predicted in the state i

Q3obs has the same definition as above, but on the total dataset

MET1
total predicted alpha residus:	0
total predicted beta residus:	15
total predicted coil residus:	17
Qalphaobs:	 0.00
Qbetaobs:	100.00
Qcoilobs:	80.00
Q3obs:	53.13
Qalphapred:	-99.99
Qbetapred:	60.00
Qcoilpred:	47.06
Calpha:	-99.99
Cbeta:	 0.67
Ccoil:	 0.36
MET2
total predicted alpha residus:	15
total predicted beta residus:	5
total predicted coil residus:	12
Qalphaobs:	92.31
Qbetaobs:	55.56
Qcoilobs:	90.00
Q3obs:	81.25
Qalphapred:	80.00
Qbetapred:	100.00
Qcoilpred:	75.00
Calpha:	 0.75
Cbeta:	 0.69
Ccoil:	 0.73
MET3
total predicted alpha residus:	11
total predicted beta residus:	9
total predicted coil residus:	12
Qalphaobs:	30.77
Qbetaobs:	33.33
Qcoilobs:	40.00
Q3obs:	34.38
Qalphapred:	36.36
Qbetapred:	33.33
Qcoilpred:	33.33
Calpha:	-0.06
Cbeta:	 0.07
Ccoil:	 0.03
CONS
total predicted alpha residus:	3
total predicted beta residus:	17
total predicted coil residus:	12
Qalphaobs:	23.08
Qbetaobs:	100.00
Qcoilobs:	80.00
Q3obs:	62.50
Qalphapred:	100.00
Qbetapred:	52.94
Qcoilpred:	66.67
Calpha:	 0.39
Cbeta:	 0.59
Ccoil:	 0.59
